%YAML 1.1
%TAG !u! tag:unity3d.com,2011:
--- !u!114 &11400000
MonoBehaviour:
  m_ObjectHideFlags: 0
  m_PrefabParentObject: {fileID: 0}
  m_PrefabInternal: {fileID: 0}
  m_GameObject: {fileID: 0}
  m_Enabled: 1
  m_EditorHideFlags: 0
  m_Script: {fileID: 11500000, guid: 9ae818a73f0860844834e646644446f0, type: 3}
  m_Name: CaisseArrow
  m_EditorClassIdentifier: 
  sprite: {fileID: 21300000, guid: 72890bbaa0a4c4d43957d81821454fea, type: 3}
