%YAML 1.1
%TAG !u! tag:unity3d.com,2011:
--- !u!114 &11400000
MonoBehaviour:
  m_ObjectHideFlags: 0
  m_PrefabParentObject: {fileID: 0}
  m_PrefabInternal: {fileID: 0}
  m_GameObject: {fileID: 0}
  m_Enabled: 1
  m_EditorHideFlags: 0
  m_Script: {fileID: 11500000, guid: a2fcdd4905dfde3468b666c3c2e548db, type: 3}
  m_Name: DeltaCaisse216
  m_EditorClassIdentifier: 
  delta: 2
  caisse1: {fileID: 11400000, guid: 463f52045dcf51446b0fe5860cad6e6b, type: 2}
  caisse2: {fileID: 0}
