%YAML 1.1
%TAG !u! tag:unity3d.com,2011:
--- !u!114 &11400000
MonoBehaviour:
  m_ObjectHideFlags: 0
  m_PrefabParentObject: {fileID: 0}
  m_PrefabInternal: {fileID: 0}
  m_GameObject: {fileID: 0}
  m_Enabled: 1
  m_EditorHideFlags: 0
  m_Script: {fileID: 11500000, guid: c9c65146f36808444a00100fba4fa3a8, type: 3}
  m_Name: OmegaDeltaC3
  m_EditorClassIdentifier: 
  caisseCount: 3
  omega: 2
  delta: 0
