%YAML 1.1
%TAG !u! tag:unity3d.com,2011:
--- !u!114 &11400000
MonoBehaviour:
  m_ObjectHideFlags: 0
  m_PrefabParentObject: {fileID: 0}
  m_PrefabInternal: {fileID: 0}
  m_GameObject: {fileID: 0}
  m_Enabled: 1
  m_EditorHideFlags: 0
  m_Script: {fileID: 11500000, guid: 73d71ce3094ea8841989fa6fc213f3d0, type: 3}
  m_Name: PasswordMapping10
  m_EditorClassIdentifier: 
  mostPipesPlate: 1
  leastPipesPlate: 0
  password: sans
