%YAML 1.1
%TAG !u! tag:unity3d.com,2011:
--- !u!114 &11400000
MonoBehaviour:
  m_ObjectHideFlags: 0
  m_PrefabParentObject: {fileID: 0}
  m_PrefabInternal: {fileID: 0}
  m_GameObject: {fileID: 0}
  m_Enabled: 1
  m_EditorHideFlags: 0
  m_Script: {fileID: 11500000, guid: 1bc1ecd0e5fe11d4397f2a01e44a9875, type: 3}
  m_Name: ClocheEglise
  m_EditorClassIdentifier: 
  clip: {fileID: 8300000, guid: ed228d9d665ee954894d68ae85e1d87b, type: 3}
  value: 4
